[
null,
{"id":1,"list":[{"code":122,"indent":0,"parameters":[2,2,0,3,5,-1,0]},{"code":122,"indent":0,"parameters":[3,3,0,3,5,-1,1]},{"code":122,"indent":0,"parameters":[20,20,0,3,7,0,0]},{"code":122,"indent":0,"parameters":[5,5,0,3,5,-1,0]},{"code":122,"indent":0,"parameters":[6,6,0,3,5,-1,1]},{"code":111,"indent":0,"parameters":[6,-1,8]},{"code":122,"indent":1,"parameters":[6,6,2,0,1]},{"code":0,"indent":1,"parameters":[]},{"code":412,"indent":0,"parameters":[]},{"code":111,"indent":0,"parameters":[6,-1,2]},{"code":122,"indent":1,"parameters":[6,6,1,0,1]},{"code":0,"indent":1,"parameters":[]},{"code":412,"indent":0,"parameters":[]},{"code":111,"indent":0,"parameters":[6,-1,4]},{"code":122,"indent":1,"parameters":[5,5,2,0,1]},{"code":0,"indent":1,"parameters":[]},{"code":412,"indent":0,"parameters":[]},{"code":111,"indent":0,"parameters":[6,-1,6]},{"code":122,"indent":1,"parameters":[5,5,1,0,1]},{"code":0,"indent":1,"parameters":[]},{"code":412,"indent":0,"parameters":[]},{"code":122,"indent":0,"parameters":[12,12,0,3,7,2,0]},{"code":0,"indent":0,"parameters":[]}],"name":"update_variables","switchId":1,"trigger":0},
{"id":2,"list":[{"code":355,"indent":0,"parameters":["$gameSystem.toolBtnDisabled = false"]},{"code":0,"indent":0,"parameters":[]}],"name":"enable_tools","switchId":1,"trigger":0},
{"id":3,"list":[{"code":355,"indent":0,"parameters":["$gameSystem.toolBtnDisabled = true"]},{"code":0,"indent":0,"parameters":[]}],"name":"disable_tools","switchId":1,"trigger":0},
{"id":4,"list":[{"code":117,"indent":0,"parameters":[1]},{"code":285,"indent":0,"parameters":[7,1,1,5,6]},{"code":355,"indent":0,"parameters":["Galv.SPAWN.overlap = 'all'; "]},{"code":355,"indent":0,"parameters":["Galv.SPAWN.event(1,$gameVariables.value(5), $gameVariables.value(6) );"]},{"code":355,"indent":0,"parameters":["var id = $gameVariables.value(7)"]},{"code":655,"indent":0,"parameters":["var ev = $dataMap.events[id]"]},{"code":655,"indent":0,"parameters":["if(ev != undefined && ev.meta.break){"]},{"code":655,"indent":0,"parameters":["var key = [$gameMap._mapId, id, 'A']"]},{"code":655,"indent":0,"parameters":["$gameSelfSwitches.setValue(key, true);"]},{"code":655,"indent":0,"parameters":["}"]},{"code":0,"indent":0,"parameters":[]}],"name":"tool_slash","switchId":1,"trigger":0},
{"id":5,"list":[{"code":117,"indent":0,"parameters":[1]},{"code":285,"indent":0,"parameters":[7,1,1,5,6]},{"code":355,"indent":0,"parameters":["Galv.SPAWN.overlap = 'all'; "]},{"code":355,"indent":0,"parameters":["Galv.SPAWN.event(2,$gameVariables.value(5), $gameVariables.value(6) );"]},{"code":355,"indent":0,"parameters":["var id = $gameVariables.value(7)"]},{"code":655,"indent":0,"parameters":["var ev = $dataMap.events[id]"]},{"code":655,"indent":0,"parameters":["if(ev != undefined && ev.meta.focus){"]},{"code":655,"indent":0,"parameters":["var key = [$gameMap._mapId, id, 'A']"]},{"code":655,"indent":0,"parameters":["$gameSelfSwitches.setValue(key, true);"]},{"code":655,"indent":0,"parameters":["}"]},{"code":0,"indent":0,"parameters":[]}],"name":"tool_focus","switchId":1,"trigger":0},
{"id":6,"list":[{"code":121,"indent":0,"parameters":[17,17,0]},{"code":0,"indent":0,"parameters":[]}],"name":"visibility_low","switchId":1,"trigger":0},
{"id":7,"list":[{"code":121,"indent":0,"parameters":[17,17,1]},{"code":0,"indent":0,"parameters":[]}],"name":"visibility_normal","switchId":1,"trigger":0},
{"id":8,"list":[{"code":101,"indent":0,"parameters":["",0,0,2]},{"code":401,"indent":0,"parameters":["<c:-1,160,0,Window2>"]},{"code":401,"indent":0,"parameters":["A note has been added to your notebook."]},{"code":0,"indent":0,"parameters":[]}],"name":"notebook_update","switchId":1,"trigger":0},
{"id":9,"list":[{"code":250,"indent":0,"parameters":[{"name":"Door1","volume":90,"pitch":100,"pan":0}]},{"code":101,"indent":0,"parameters":["",0,0,2]},{"code":401,"indent":0,"parameters":["It's locked."]},{"code":104,"indent":0,"parameters":[1,2]},{"code":111,"indent":0,"parameters":[1,1,0,6,0]},{"code":101,"indent":1,"parameters":["",0,0,2]},{"code":401,"indent":1,"parameters":["The lock clicks open."]},{"code":123,"indent":1,"parameters":["A",0]},{"code":122,"indent":1,"parameters":[1,1,0,0,0]},{"code":0,"indent":1,"parameters":[]},{"code":411,"indent":0,"parameters":[]},{"code":101,"indent":1,"parameters":["",0,0,2]},{"code":401,"indent":1,"parameters":["Nothing happens."]},{"code":0,"indent":1,"parameters":[]},{"code":412,"indent":0,"parameters":[]},{"code":0,"indent":0,"parameters":[]}],"name":"rusted_key_door","switchId":1,"trigger":0},
{"id":10,"list":[{"code":205,"indent":0,"parameters":[0,{"list":[{"code":11,"indent":null},{"code":0}],"repeat":false,"skippable":true,"wait":true}]},{"code":505,"indent":0,"parameters":[{"code":11,"indent":null}]},{"code":0,"indent":0,"parameters":[]}],"name":"pushable","switchId":1,"trigger":0},
{"id":11,"list":[{"code":356,"indent":0,"parameters":["Light radius 300 #ff8800 b15"]},{"code":121,"indent":0,"parameters":[11,11,0]},{"code":0,"indent":0,"parameters":[]}],"name":"lit_on","switchId":1,"trigger":0},
{"id":12,"list":[{"code":356,"indent":0,"parameters":["Light radius 0 #ffffff b15"]},{"code":121,"indent":0,"parameters":[11,11,1]},{"code":0,"indent":0,"parameters":[]}],"name":"lit_off","switchId":1,"trigger":0},
{"id":13,"list":[{"code":250,"indent":0,"parameters":[{"name":"Switch3","volume":90,"pitch":100,"pan":0}]},{"code":111,"indent":0,"parameters":[0,11,0]},{"code":117,"indent":1,"parameters":[12]},{"code":0,"indent":1,"parameters":[]},{"code":411,"indent":0,"parameters":[]},{"code":117,"indent":1,"parameters":[11]},{"code":0,"indent":1,"parameters":[]},{"code":412,"indent":0,"parameters":[]},{"code":0,"indent":0,"parameters":[]}],"name":"toggle_lit","switchId":1,"trigger":0},
{"id":14,"list":[{"code":111,"indent":0,"parameters":[6,-1,2]},{"code":205,"indent":1,"parameters":[-1,{"list":[{"code":37,"indent":null},{"code":1,"indent":null},{"code":38,"indent":null},{"code":0}],"repeat":false,"skippable":false,"wait":false}]},{"code":505,"indent":1,"parameters":[{"code":37,"indent":null}]},{"code":505,"indent":1,"parameters":[{"code":1,"indent":null}]},{"code":505,"indent":1,"parameters":[{"code":38,"indent":null}]},{"code":205,"indent":1,"parameters":[0,{"list":[{"code":1,"indent":null},{"code":0}],"repeat":false,"skippable":true,"wait":true}]},{"code":505,"indent":1,"parameters":[{"code":1,"indent":null}]},{"code":0,"indent":1,"parameters":[]},{"code":412,"indent":0,"parameters":[]},{"code":111,"indent":0,"parameters":[6,-1,4]},{"code":205,"indent":1,"parameters":[-1,{"list":[{"code":37,"indent":null},{"code":2,"indent":null},{"code":38,"indent":null},{"code":0}],"repeat":false,"skippable":false,"wait":false}]},{"code":505,"indent":1,"parameters":[{"code":37,"indent":null}]},{"code":505,"indent":1,"parameters":[{"code":2,"indent":null}]},{"code":505,"indent":1,"parameters":[{"code":38,"indent":null}]},{"code":205,"indent":1,"parameters":[0,{"list":[{"code":2,"indent":null},{"code":0}],"repeat":false,"skippable":true,"wait":true}]},{"code":505,"indent":1,"parameters":[{"code":2,"indent":null}]},{"code":0,"indent":1,"parameters":[]},{"code":412,"indent":0,"parameters":[]},{"code":111,"indent":0,"parameters":[6,-1,6]},{"code":205,"indent":1,"parameters":[-1,{"list":[{"code":37,"indent":null},{"code":3,"indent":null},{"code":38,"indent":null},{"code":0}],"repeat":false,"skippable":false,"wait":false}]},{"code":505,"indent":1,"parameters":[{"code":37,"indent":null}]},{"code":505,"indent":1,"parameters":[{"code":3,"indent":null}]},{"code":505,"indent":1,"parameters":[{"code":38,"indent":null}]},{"code":205,"indent":1,"parameters":[0,{"list":[{"code":3,"indent":null},{"code":0}],"repeat":false,"skippable":true,"wait":true}]},{"code":505,"indent":1,"parameters":[{"code":3,"indent":null}]},{"code":0,"indent":1,"parameters":[]},{"code":412,"indent":0,"parameters":[]},{"code":111,"indent":0,"parameters":[6,-1,8]},{"code":205,"indent":1,"parameters":[-1,{"list":[{"code":37,"indent":null},{"code":4,"indent":null},{"code":38,"indent":null},{"code":0}],"repeat":false,"skippable":false,"wait":false}]},{"code":505,"indent":1,"parameters":[{"code":37,"indent":null}]},{"code":505,"indent":1,"parameters":[{"code":4,"indent":null}]},{"code":505,"indent":1,"parameters":[{"code":38,"indent":null}]},{"code":205,"indent":1,"parameters":[0,{"list":[{"code":4,"indent":null},{"code":0}],"repeat":false,"skippable":true,"wait":true}]},{"code":505,"indent":1,"parameters":[{"code":4,"indent":null}]},{"code":0,"indent":1,"parameters":[]},{"code":412,"indent":0,"parameters":[]},{"code":0,"indent":0,"parameters":[]}],"name":"pushable","switchId":1,"trigger":0},
{"id":15,"list":[{"code":132,"indent":0,"parameters":[{"name":"Battle 4","volume":90,"pitch":100,"pan":0}]},{"code":0,"indent":0,"parameters":[]}],"name":"default_battle_music","switchId":1,"trigger":0},
{"id":16,"list":[{"code":132,"indent":0,"parameters":[{"name":"Boss 5","volume":90,"pitch":100,"pan":0}]},{"code":241,"indent":0,"parameters":[{"name":"Boss 5","volume":90,"pitch":100,"pan":0}]},{"code":0,"indent":0,"parameters":[]}],"name":"boss_music","switchId":1,"trigger":0},
{"id":17,"list":[{"code":132,"indent":0,"parameters":[{"name":"Field2","volume":90,"pitch":100,"pan":0}]},{"code":134,"indent":0,"parameters":[1]},{"code":117,"indent":0,"parameters":[3]},{"code":356,"indent":0,"parameters":["DisableVictoryMusic"]},{"code":205,"indent":0,"parameters":[-1,{"list":[{"code":29,"parameters":[5],"indent":null},{"code":30,"parameters":[3],"indent":null},{"code":0}],"repeat":false,"skippable":false,"wait":false}]},{"code":505,"indent":0,"parameters":[{"code":29,"parameters":[5],"indent":null}]},{"code":505,"indent":0,"parameters":[{"code":30,"parameters":[3],"indent":null}]},{"code":0,"indent":0,"parameters":[]}],"name":"enter_overworld","switchId":1,"trigger":0},
{"id":18,"list":[{"code":134,"indent":0,"parameters":[0]},{"code":117,"indent":0,"parameters":[15]},{"code":117,"indent":0,"parameters":[2]},{"code":356,"indent":0,"parameters":["InformationWindow 1 Close"]},{"code":205,"indent":0,"parameters":[-1,{"list":[{"code":29,"parameters":[4],"indent":null},{"code":30,"parameters":[3],"indent":null},{"code":0}],"repeat":false,"skippable":false,"wait":false}]},{"code":505,"indent":0,"parameters":[{"code":29,"parameters":[4],"indent":null}]},{"code":505,"indent":0,"parameters":[{"code":30,"parameters":[3],"indent":null}]},{"code":356,"indent":0,"parameters":["EnableVictoryMusic"]},{"code":0,"indent":0,"parameters":[]}],"name":"leave_overworld","switchId":1,"trigger":0},
{"id":19,"list":[{"code":236,"indent":0,"parameters":["storm",9,60,false]},{"code":245,"indent":0,"parameters":[{"name":"Storm2","volume":90,"pitch":100,"pan":0}]},{"code":223,"indent":0,"parameters":[[-187,-187,-85,68],60,false]},{"code":356,"indent":0,"parameters":["InformationWindow 1 Text: You are in the storm!"]},{"code":356,"indent":0,"parameters":["InformationWindow 1 Open"]},{"code":111,"indent":0,"parameters":[0,16,1]},{"code":122,"indent":1,"parameters":[11,11,0,2,0,15]},{"code":111,"indent":1,"parameters":[1,11,0,5,2]},{"code":101,"indent":2,"parameters":["lania_1",0,0,2]},{"code":401,"indent":2,"parameters":["<c:-1,360>    "]},{"code":401,"indent":2,"parameters":["Let's not stay in the rain for too long."]},{"code":0,"indent":2,"parameters":[]},{"code":412,"indent":1,"parameters":[]},{"code":0,"indent":1,"parameters":[]},{"code":412,"indent":0,"parameters":[]},{"code":121,"indent":0,"parameters":[16,16,0]},{"code":0,"indent":0,"parameters":[]}],"name":"enter_storm","switchId":1,"trigger":0},
{"id":20,"list":[{"code":111,"indent":0,"parameters":[0,16,0]},{"code":236,"indent":1,"parameters":["none",1,60,false]},{"code":223,"indent":1,"parameters":[[0,0,0,0],60,false]},{"code":246,"indent":1,"parameters":[1]},{"code":121,"indent":1,"parameters":[16,16,1]},{"code":356,"indent":1,"parameters":["InformationWindow 1 Hide"]},{"code":356,"indent":1,"parameters":["InformationWindow 1 Close"]},{"code":0,"indent":1,"parameters":[]},{"code":412,"indent":0,"parameters":[]},{"code":0,"indent":0,"parameters":[]}],"name":"leave_storm","switchId":1,"trigger":0},
{"id":21,"list":[{"code":111,"indent":0,"parameters":[0,18,0]},{"code":314,"indent":1,"parameters":[0,0]},{"code":0,"indent":1,"parameters":[]},{"code":412,"indent":0,"parameters":[]},{"code":0,"indent":0,"parameters":[]}],"name":"level_up","switchId":1,"trigger":0},
{"id":22,"list":[{"code":0,"indent":0,"parameters":[]}],"name":"","switchId":1,"trigger":0},
{"id":23,"list":[{"code":356,"indent":0,"parameters":["EnemyBook open"]},{"code":0,"indent":0,"parameters":[]}],"name":"open_enemy_book","switchId":1,"trigger":0},
{"id":24,"list":[{"code":122,"indent":0,"parameters":[12,12,0,3,7,2,0]},{"code":117,"indent":0,"parameters":[34]},{"code":111,"indent":0,"parameters":[0,22,0]},{"code":101,"indent":1,"parameters":["",0,0,2]},{"code":401,"indent":1,"parameters":["Good day! Today, it is \\c[3]\\v[13]\\c[0]\\G to stay.\\$"]},{"code":0,"indent":1,"parameters":[]},{"code":411,"indent":0,"parameters":[]},{"code":101,"indent":1,"parameters":["",0,0,2]},{"code":401,"indent":1,"parameters":["Good evening! Today, it is \\c[3]\\v[13]\\c[0]\\G to stay.\\$"]},{"code":0,"indent":1,"parameters":[]},{"code":412,"indent":0,"parameters":[]},{"code":102,"indent":0,"parameters":[["Stay the night","Stay until evening","Save","Leave"],3,-1,2,0]},{"code":402,"indent":0,"parameters":[0,"Stay the night"]},{"code":111,"indent":1,"parameters":[1,12,1,13,1]},{"code":221,"indent":2,"parameters":[]},{"code":243,"indent":2,"parameters":[]},{"code":242,"indent":2,"parameters":[1]},{"code":230,"indent":2,"parameters":[60]},{"code":249,"indent":2,"parameters":[{"name":"Inn","volume":90,"pitch":100,"pan":0}]},{"code":230,"indent":2,"parameters":[60]},{"code":244,"indent":2,"parameters":[]},{"code":250,"indent":2,"parameters":[{"name":"Heal3","volume":90,"pitch":100,"pan":0}]},{"code":314,"indent":2,"parameters":[0,0]},{"code":222,"indent":2,"parameters":[]},{"code":356,"indent":2,"parameters":["Daynight hour 7 0"]},{"code":0,"indent":2,"parameters":[]},{"code":412,"indent":1,"parameters":[]},{"code":0,"indent":1,"parameters":[]},{"code":402,"indent":0,"parameters":[1,"Stay until evening"]},{"code":111,"indent":1,"parameters":[1,12,1,13,1]},{"code":221,"indent":2,"parameters":[]},{"code":243,"indent":2,"parameters":[]},{"code":242,"indent":2,"parameters":[1]},{"code":230,"indent":2,"parameters":[60]},{"code":249,"indent":2,"parameters":[{"name":"Inn","volume":90,"pitch":100,"pan":0}]},{"code":230,"indent":2,"parameters":[60]},{"code":244,"indent":2,"parameters":[]},{"code":250,"indent":2,"parameters":[{"name":"Heal3","volume":90,"pitch":100,"pan":0}]},{"code":314,"indent":2,"parameters":[0,0]},{"code":222,"indent":2,"parameters":[]},{"code":356,"indent":2,"parameters":["Daynight hour 19 0"]},{"code":0,"indent":2,"parameters":[]},{"code":412,"indent":1,"parameters":[]},{"code":0,"indent":1,"parameters":[]},{"code":402,"indent":0,"parameters":[2,"Save"]},{"code":352,"indent":1,"parameters":[]},{"code":0,"indent":1,"parameters":[]},{"code":402,"indent":0,"parameters":[3,"Leave"]},{"code":0,"indent":1,"parameters":[]},{"code":404,"indent":0,"parameters":[]},{"code":0,"indent":0,"parameters":[]}],"name":"inn","switchId":1,"trigger":0},
{"id":25,"list":[{"code":355,"indent":0,"parameters":["Technomancer.Abilities.doScan();"]},{"code":0,"indent":0,"parameters":[]}],"name":"scan","switchId":1,"trigger":0},
{"id":26,"list":[{"code":355,"indent":0,"parameters":["Technomancer.Abilities.doSteal();"]},{"code":0,"indent":0,"parameters":[]}],"name":"steal","switchId":1,"trigger":0},
{"id":27,"list":[{"code":205,"indent":0,"parameters":[0,{"list":[{"code":14,"parameters":[0,0],"indent":null},{"code":0}],"repeat":false,"skippable":false,"wait":true}]},{"code":505,"indent":0,"parameters":[{"code":14,"parameters":[0,0],"indent":null}]},{"code":121,"indent":0,"parameters":[19,19,0]},{"code":123,"indent":0,"parameters":["A",0]},{"code":0,"indent":0,"parameters":[]}],"name":"pickup","switchId":1,"trigger":0},
{"id":28,"list":[{"code":117,"indent":0,"parameters":[1]},{"code":203,"indent":0,"parameters":[0,1,5,6,0]},{"code":111,"indent":0,"parameters":[11,"ok"]},{"code":117,"indent":1,"parameters":[29]},{"code":0,"indent":1,"parameters":[]},{"code":412,"indent":0,"parameters":[]},{"code":0,"indent":0,"parameters":[]}],"name":"held","switchId":19,"trigger":0},
{"id":29,"list":[{"code":111,"indent":0,"parameters":[0,19,0]},{"code":121,"indent":1,"parameters":[19,19,1]},{"code":205,"indent":1,"parameters":[0,{"list":[{"code":14,"parameters":[0,0],"indent":null},{"code":0}],"repeat":false,"skippable":false,"wait":false}]},{"code":505,"indent":1,"parameters":[{"code":14,"parameters":[0,0],"indent":null}]},{"code":230,"indent":1,"parameters":[60]},{"code":123,"indent":1,"parameters":["A",1]},{"code":0,"indent":1,"parameters":[]},{"code":412,"indent":0,"parameters":[]},{"code":0,"indent":0,"parameters":[]}],"name":"drop","switchId":1,"trigger":0},
{"id":30,"list":[{"code":111,"indent":0,"parameters":[1,19,0,0,3]},{"code":117,"indent":1,"parameters":[1]},{"code":122,"indent":1,"parameters":[19,19,2,0,1]},{"code":285,"indent":1,"parameters":[7,1,1,5,6]},{"code":355,"indent":1,"parameters":["Galv.SPAWN.overlap = 'all'; "]},{"code":355,"indent":1,"parameters":["Galv.SPAWN.event(3,$gameVariables.value(5), $gameVariables.value(6) );"]},{"code":355,"indent":1,"parameters":["var id = $gameVariables.value(7)"]},{"code":655,"indent":1,"parameters":["var ev = $dataMap.events[id]"]},{"code":655,"indent":1,"parameters":["if(ev != undefined && ev.meta.boom){"]},{"code":655,"indent":1,"parameters":["var key = [$gameMap._mapId, id, 'A']"]},{"code":655,"indent":1,"parameters":["$gameSelfSwitches.setValue(key, true);"]},{"code":655,"indent":1,"parameters":["}"]},{"code":0,"indent":1,"parameters":[]},{"code":411,"indent":0,"parameters":[]},{"code":101,"indent":1,"parameters":["",0,0,2]},{"code":401,"indent":1,"parameters":["You've run out of powder!"]},{"code":0,"indent":1,"parameters":[]},{"code":412,"indent":0,"parameters":[]},{"code":0,"indent":0,"parameters":[]}],"name":"tool_boom","switchId":1,"trigger":0},
{"id":31,"list":[{"code":356,"indent":0,"parameters":["ItemBook open"]},{"code":0,"indent":0,"parameters":[]}],"name":"open_item_book","switchId":1,"trigger":0},
{"id":32,"list":[{"code":122,"indent":0,"parameters":[5,5,0,3,5,0,0]},{"code":122,"indent":0,"parameters":[6,6,0,3,5,0,1]},{"code":122,"indent":0,"parameters":[2,2,0,3,5,-1,0]},{"code":122,"indent":0,"parameters":[3,3,0,3,5,-1,1]},{"code":111,"indent":0,"parameters":[1,5,1,2,0]},{"code":111,"indent":1,"parameters":[1,6,1,3,0]},{"code":301,"indent":2,"parameters":[2,0,true,true]},{"code":601,"indent":2,"parameters":[]},{"code":0,"indent":3,"parameters":[]},{"code":602,"indent":2,"parameters":[]},{"code":0,"indent":3,"parameters":[]},{"code":603,"indent":2,"parameters":[]},{"code":117,"indent":3,"parameters":[35]},{"code":0,"indent":3,"parameters":[]},{"code":604,"indent":2,"parameters":[]},{"code":214,"indent":2,"parameters":[]},{"code":0,"indent":2,"parameters":[]},{"code":412,"indent":1,"parameters":[]},{"code":0,"indent":1,"parameters":[]},{"code":412,"indent":0,"parameters":[]},{"code":0,"indent":0,"parameters":[]}],"name":"field_battle","switchId":1,"trigger":0},
{"id":33,"list":[{"code":111,"indent":0,"parameters":[0,21,0]},{"code":121,"indent":1,"parameters":[21,21,1]},{"code":201,"indent":1,"parameters":[1,20,2,3,0,1]},{"code":216,"indent":1,"parameters":[0]},{"code":0,"indent":1,"parameters":[]},{"code":411,"indent":0,"parameters":[]},{"code":216,"indent":1,"parameters":[1]},{"code":121,"indent":1,"parameters":[21,21,0]},{"code":117,"indent":1,"parameters":[1]},{"code":201,"indent":1,"parameters":[0,21,8,9,0,1]},{"code":0,"indent":1,"parameters":[]},{"code":412,"indent":0,"parameters":[]},{"code":0,"indent":0,"parameters":[]}],"name":"mind_palace","switchId":1,"trigger":0},
{"id":34,"list":[{"code":122,"indent":0,"parameters":[29,29,0,3,7,0,0]},{"code":122,"indent":0,"parameters":[30,30,0,3,5,-1,0]},{"code":122,"indent":0,"parameters":[31,31,0,3,5,-1,1]},{"code":0,"indent":0,"parameters":[]}],"name":"store_respawn","switchId":1,"trigger":0},
{"id":35,"list":[{"code":201,"indent":0,"parameters":[1,29,30,31,2,1]},{"code":314,"indent":0,"parameters":[0,0]},{"code":122,"indent":0,"parameters":[32,32,0,3,7,2,0]},{"code":122,"indent":0,"parameters":[32,32,4,0,10]},{"code":125,"indent":0,"parameters":[1,1,32]},{"code":101,"indent":0,"parameters":["",0,0,2]},{"code":401,"indent":0,"parameters":["You were rescued by a traveller, and brought back"]},{"code":401,"indent":0,"parameters":["to here. You find \\v[32]\\G missing."]},{"code":0,"indent":0,"parameters":[]}],"name":"respawn","switchId":1,"trigger":0},
{"id":36,"list":[{"code":331,"indent":0,"parameters":[-1,1,0,9999,true]},{"code":0,"indent":0,"parameters":[]}],"name":"instagib","switchId":1,"trigger":0},
{"id":37,"list":[{"code":201,"indent":0,"parameters":[0,17,17,25,0,0]},{"code":0,"indent":0,"parameters":[]}],"name":"debugger","switchId":1,"trigger":0},
{"id":38,"list":[{"code":117,"indent":0,"parameters":[1]},{"code":285,"indent":0,"parameters":[7,1,1,5,6]},{"code":101,"indent":0,"parameters":["",0,0,2]},{"code":401,"indent":0,"parameters":["Activating..."]},{"code":355,"indent":0,"parameters":["var id = $gameVariables.value(7)"]},{"code":655,"indent":0,"parameters":["var ev = $dataMap.events[id]"]},{"code":655,"indent":0,"parameters":["if(ev != undefined && ev.meta.golem){"]},{"code":655,"indent":0,"parameters":["var key = [$gameMap._mapId, id, 'A']"]},{"code":655,"indent":0,"parameters":["$gameSelfSwitches.setValue(key, true);"]},{"code":655,"indent":0,"parameters":["}"]},{"code":0,"indent":0,"parameters":[]}],"name":"tool_golem","switchId":1,"trigger":0},
{"id":39,"list":[{"code":117,"indent":0,"parameters":[1]},{"code":201,"indent":0,"parameters":[0,36,8,5,8,1]},{"code":121,"indent":0,"parameters":[32,32,0]},{"code":0,"indent":0,"parameters":[]}],"name":"sky_engine","switchId":1,"trigger":0},
{"id":40,"list":[{"code":0,"indent":0,"parameters":[]}],"name":"","switchId":1,"trigger":0},
{"id":41,"list":[{"code":0,"indent":0,"parameters":[]}],"name":"","switchId":1,"trigger":0},
{"id":42,"list":[{"code":0,"indent":0,"parameters":[]}],"name":"","switchId":1,"trigger":0},
{"id":43,"list":[{"code":0,"indent":0,"parameters":[]}],"name":"","switchId":1,"trigger":0}
]